{
  "name": "mikemurray86-vss",
  "version": "0.2.1",
  "author": "Mike Murray",
  "summary": "This module controls VSS on windows systems",
  "license": "GPL-3.0",
  "source": "https://gitlab.com/mikemurray86/puppet-vss",
  "issues_url": "https://gitlab.com/mikemurray86/puppet-vss/issues",
  "dependencies": [
    {
      "name": "puppetlabs/stdlib",
      "version_requirement": ">= 3.2.0 <5.0.0"
    }
  ],
  "operatingsystem_support": [
    {
      "operatingsystem": "windows",
      "operatingsystemrelease": [
        "2008 R2",
        "2012 R2",
        "2016"
      ]
    }
  ],
  "requirements": [
    {
      "name": "puppet",
      "version_requirement": ">= 4.7.0 < 6.0.0"
    }
  ],
  "tags": [
    "windows",
    "Volume-Shadow-Copy",
    "vss"
  ],
  "pdk-version": "1.6.1",
  "template-url": "file://C:/Program Files/Puppet Labs/DevelopmentKit/share/cache/pdk-templates.git",
  "template-ref": "1.6.1-0-g6b0d497"
}
